Basketball_Spending
…
basketball <- basketball |> filter(YEAR %in% c("2015", "2016", "2017", "2018"))

basketball_2015_2019 <- bind_rows(basketball, basketball_stat) |>

  mutate(YEAR = ifelse(is.na(YEAR), "2019", YEAR)) |>
  select(TEAM, CONF, G, W, POSTSEASON, SEED, YEAR) |>
  mutate(TEAM = TEAM |>
  str_to_lower())

  basketball_2015_2019$YEAR <- as.numeric(basketball_2015_2019$YEAR)

basketball_2015_2019

# A tibble: 1,757 × 7
   TEAM           CONF      G     W POSTSEASON  SEED  YEAR
   <chr>          <chr> <dbl> <dbl> <chr>      <dbl> <dbl>
 1 north carolina ACC      40    33 2ND            1  2016
 2 wisconsin      B10      40    36 2ND            1  2015
 3 michigan       B10      40    33 2ND            3  2018
 4 gonzaga        WCC      39    37 2ND            1  2017
 5 duke           ACC      39    35 Champions      1  2015
 6 north carolina ACC      39    33 Champions      1  2017
 7 villanova      BE       40    35 Champions      2  2016
 8 villanova      BE       40    36 Champions      1  2018
 9 louisville     ACC      36    27 E8             4  2015
10 notre dame     ACC      38    32 E8             3  2015
# ℹ 1,747 more rows
…
