…
    ℹ Use `spec()` to retrieve the full column specification for this data.
    ℹ Specify the column types or set `show_col_types = FALSE` to quiet this message.
    Rows: 2102 Columns: 24
    ── Column specification ────────────────────────────────────────────────────────
    Delimiter: ","
    chr  (3): TEAM, CONF, POSTSEASON
    dbl (21): G, W, ADJOE, ADJDE, BARTHAG, EFG_O, EFG_D, TOR, TORD, ORB, DRB, FT...

    ℹ Use `spec()` to retrieve the full column specification for this data.
    ℹ Specify the column types or set `show_col_types = FALSE` to quiet this message.

    # A tibble: 1,757 × 7
       TEAM           CONF      G     W POSTSEASON  SEED  YEAR
       <chr>          <chr> <dbl> <dbl> <chr>      <dbl> <dbl>
     1 north carolina ACC      40    33 2ND            1  2016
     2 wisconsin      B10      40    36 2ND            1  2015
     3 michigan       B10      40    33 2ND            3  2018
     4 gonzaga        WCC      39    37 2ND            1  2017
     5 duke           ACC      39    35 Champions      1  2015
     6 north carolina ACC      39    33 Champions      1  2017
     7 villanova      BE       40    35 Champions      2  2016
     8 villanova      BE       40    36 Champions      1  2018
     9 louisville     ACC      36    27 E8             4  2015
    10 notre dame     ACC      38    32 E8             3  2015
    # ℹ 1,747 more rows
…
